<svg width="23" height="18" viewBox="0 0 23 18" fill="none" xmlns="http://www.w3.org/2000/svg">
<path d="M22.3026 1.79728H13.2345C13.0166 0.789712 12.0908 0 11.0287 0C9.93949 0 9.04085 0.762481 8.823 1.79728H0.490166C0.217852 1.79728 0 2.01513 0 2.28744C0 2.55976 0.217852 2.77761 0.490166 2.77761H8.79576C9.01362 3.78517 9.93949 4.57489 11.0015 4.57489C12.0908 4.57489 12.9894 3.81241 13.2073 2.77761H22.3026C22.5749 2.77761 22.7927 2.55976 22.7927 2.28744C22.7927 2.01513 22.5749 1.79728 22.3026 1.79728ZM11.0287 3.62179C10.3207 3.62179 9.72163 3.04992 9.72163 2.31467C9.72163 1.57943 10.2935 1.00756 11.0287 1.00756C11.7368 1.00756 12.3359 1.57943 12.3359 2.31467C12.3359 3.02269 11.764 3.62179 11.0287 3.62179Z" fill="black"/>
<path d="M22.3298 8.52345H8.57791C8.36006 7.51589 7.43419 6.72617 6.37216 6.72617C5.2829 6.72617 4.38427 7.48866 4.16641 8.52345H0.490166C0.217852 8.52345 0 8.7413 0 9.01362C0 9.28593 0.217852 9.50378 0.490166 9.50378H4.16641C4.38427 10.5113 5.31014 11.3011 6.37216 11.3011C7.46142 11.3011 8.36006 10.5386 8.57791 9.50378H22.3298C22.6021 9.50378 22.82 9.28593 22.82 9.01362C22.82 8.7413 22.6021 8.52345 22.3298 8.52345ZM6.37216 10.3207C5.66414 10.3207 5.06505 9.74887 5.06505 9.01362C5.06505 8.3056 5.66414 7.70651 6.37216 7.70651C7.08018 7.70651 7.67927 8.27837 7.67927 9.01362C7.67927 9.72164 7.10741 10.3207 6.37216 10.3207Z" fill="black"/>
<path d="M22.3026 15.2224H18.0272C17.8094 14.2148 16.8835 13.4251 15.8215 13.4251C14.7322 13.4251 13.8336 14.1876 13.6157 15.2224H0.490166C0.217852 15.2224 0 15.4402 0 15.7126C0 15.9849 0.217852 16.2027 0.490166 16.2027H13.5885C13.8064 17.2103 14.7322 18 15.7943 18C16.8835 18 17.7821 17.2375 18 16.2027H22.3026C22.5749 16.2027 22.7927 15.9849 22.7927 15.7126C22.7927 15.4402 22.5749 15.2224 22.3026 15.2224ZM15.7943 17.0469C15.0862 17.0469 14.4871 16.475 14.4871 15.7398C14.4871 15.0045 15.0862 14.4327 15.7943 14.4327C16.5023 14.4327 17.1014 15.0045 17.1014 15.7398C17.1014 16.475 16.5295 17.0469 15.7943 17.0469Z" fill="black"/>
</svg>
