<svg width="23" height="23" viewBox="0 0 23 23" fill="none" xmlns="http://www.w3.org/2000/svg">
<g clip-path="url(#clip0)">
<path d="M22.8993 8.74355C22.623 7.89641 21.8686 7.34904 20.9775 7.34904H15.2312L13.4217 1.85375C13.1435 1.00899 12.3907 0.464493 11.5022 0.464493C11.4994 0.464493 11.4964 0.464493 11.4936 0.464538C10.6015 0.468042 9.84898 1.01928 9.57662 1.86889L7.81982 7.34904H2.02566C1.13235 7.34904 0.377391 7.89826 0.102379 8.74818C-0.172677 9.5981 0.117428 10.4855 0.841479 11.0088L5.52957 14.3975L3.72506 19.8775C3.44578 20.7257 3.73103 21.6143 4.45176 22.1414C4.81374 22.4062 5.22922 22.5386 5.64497 22.5386C6.05695 22.5386 6.46915 22.4085 6.82934 22.1481L11.5256 18.7537L16.166 22.1424C16.8859 22.6682 17.8183 22.6707 18.5411 22.149C19.264 21.6273 19.5552 20.7417 19.2832 19.8927L17.5214 14.3975L22.1697 11.003C22.8893 10.4775 23.1757 9.59064 22.8993 8.74355ZM21.3749 9.91466L15.9412 13.8827L17.9997 20.3041C18.1383 20.7363 17.8454 20.989 17.7524 21.0562C17.6594 21.1233 17.3272 21.3217 16.9607 21.0539L11.5296 17.0878L6.03983 21.0559C5.67143 21.3222 5.34013 21.1215 5.24732 21.0537C5.15456 20.9858 4.86288 20.7308 5.00511 20.299L7.11792 13.8827L1.63094 9.91664C1.26231 9.65016 1.34919 9.27246 1.38458 9.16308C1.41998 9.05369 1.57083 8.6967 2.02566 8.6967H8.80302L10.86 2.28028C10.9987 1.84773 11.3841 1.81264 11.499 1.81215H11.5013C11.619 1.81215 12.0006 1.84669 12.1417 2.27525L14.2562 8.6967H20.9776C21.4313 8.6967 21.5826 9.05248 21.6182 9.16155C21.6538 9.27062 21.7413 9.64715 21.3749 9.91466Z" fill="#464646"/>
</g>
<defs>
<clipPath id="clip0">
<rect width="23" height="23" fill="white"/>
</clipPath>
</defs>
</svg>
