<svg width="82" height="71" viewBox="0 0 82 71" fill="none" xmlns="http://www.w3.org/2000/svg">
<g filter="url(#filter0_d)">
<path d="M36.3301 0H7.95146H4L78 63V34.56L36.3301 0Z" fill="url(#paint0_linear)"/>
<path d="M4 2V0L6.5 2H4Z" fill="#3A11A0"/>
<path d="M75 63V60.5L78 63H75Z" fill="#0B4ED3"/>
<path d="M40.1633 19.9485L37.6436 17.8103L35.8312 18.8774L34.6563 17.8803L42.6335 13.4608L43.6476 14.3214L40.5891 22.9151L39.4097 21.9142L40.1633 19.9485ZM38.7342 17.1681L40.6195 18.768L41.9668 15.2697L38.7342 17.1681ZM46.1343 19.3058L45.7371 19.8372C46.4128 19.7292 47.0455 19.9255 47.6352 20.4259C48.2815 20.9744 48.514 21.5969 48.3327 22.2935C49.1037 22.0974 49.8079 22.2697 50.4453 22.8106C50.9784 23.263 51.2494 23.7466 51.2583 24.2614C51.2702 24.7787 51.0352 25.3272 50.5533 25.9071L47.8577 29.0835L46.7721 28.1622L49.4412 25.0171C49.7015 24.7103 49.8253 24.4286 49.8126 24.1719C49.7999 23.9152 49.6387 23.6554 49.3289 23.3926C49.0817 23.1828 48.8223 23.0779 48.5508 23.078C48.2847 23.0776 48.0294 23.1581 47.7848 23.3194L44.9762 26.6381L43.8906 25.7168L46.59 22.536C47.0578 21.9545 47.0088 21.4236 46.4429 20.9434C46.0081 20.5744 45.5495 20.49 45.067 20.6902L42.0947 24.1927L41.0091 23.2715L45.1112 18.4376L46.1343 19.3058ZM51.8606 32.4805C51.8913 32.3477 51.9772 32.1619 52.1184 31.9231C51.4671 31.9903 50.8913 31.8116 50.3909 31.387C49.9054 30.975 49.6268 30.5003 49.5551 29.963C49.4834 29.4257 49.6207 28.953 49.967 28.545C50.4042 28.0297 50.9298 27.7969 51.5435 27.8464C52.1628 27.8954 52.8283 28.222 53.5401 28.8261L54.2058 29.391L54.475 29.0738C54.6873 28.8236 54.7866 28.5647 54.773 28.297C54.762 28.0263 54.6135 27.7696 54.3275 27.527C54.0803 27.3172 53.8247 27.2079 53.5607 27.199C53.2992 27.1871 53.0876 27.2765 52.9259 27.4671L51.8403 26.5458C52.0652 26.2808 52.3629 26.1081 52.7332 26.0279C53.1061 25.9447 53.4985 25.9653 53.9105 26.0895C54.3255 26.2163 54.7192 26.4376 55.0915 26.7536C55.6573 27.2338 55.9872 27.7597 56.0812 28.3312C56.1776 28.8997 56.0116 29.4454 55.5833 29.9683L53.7332 32.1484C53.3642 32.5832 53.1308 32.982 53.033 33.3448L52.9685 33.4207L51.8606 32.4805ZM51.3312 30.6864C51.5457 30.8684 51.7909 30.9869 52.067 31.0419C52.3461 31.0994 52.6079 31.0807 52.8523 30.9859L53.6257 30.0745L53.0405 29.5779C52.6384 29.2366 52.2767 29.0501 51.9554 29.0182C51.6341 28.9863 51.3647 29.0984 51.1474 29.3546C50.9704 29.563 50.8974 29.788 50.9282 30.0293C50.9646 30.2702 51.0989 30.4893 51.3312 30.6864ZM55.8172 34.3473L58.3904 36.5311L57.6549 37.3978L53.7325 34.069L54.3353 33.3587L59.5442 32.1922L57.1362 30.1487L57.8793 29.2731L61.6633 32.4843L61.0794 33.1723L55.8172 34.3473ZM59.6787 39.1152L58.5931 38.1939L62.6953 33.3601L63.7809 34.2814L59.6787 39.1152ZM63.6936 32.0479C63.8351 31.8811 64.0048 31.7868 64.2025 31.7651C64.4033 31.7459 64.6019 31.8197 64.7985 31.9865C64.9951 32.1533 65.1002 32.3373 65.1139 32.5385C65.1276 32.7397 65.0637 32.9237 64.9222 33.0905C64.7831 33.2543 64.6133 33.3458 64.4125 33.365C64.2143 33.3812 64.0169 33.3059 63.8204 33.1391C63.6238 32.9723 63.5174 32.7898 63.5012 32.5916C63.4904 32.3929 63.5546 32.2117 63.6936 32.0479ZM65.9744 36.1429L65.5318 36.7279C66.2556 36.5993 66.908 36.7815 67.4888 37.2744C68.4954 38.1287 68.5186 39.1397 67.5583 40.3075L64.8476 43.5017L63.762 42.5804L66.4197 39.4487C66.68 39.142 66.8051 38.8587 66.7949 38.5991C66.7902 38.3389 66.6375 38.0812 66.3367 37.826C65.8989 37.4544 65.4047 37.3757 64.8541 37.5898L61.9348 41.0298L60.8492 40.1085L64.9513 35.2747L65.9744 36.1429ZM67.8493 41.8301C68.4862 41.0795 69.17 40.63 69.9006 40.4815C70.6366 40.3326 71.2965 40.5058 71.8803 41.0012C72.4313 41.4688 72.7016 42.0286 72.6913 42.6808L73.1537 42.2355L74.132 43.0658L70.155 47.7522C69.6166 48.3866 68.9939 48.7188 68.2869 48.749C67.5829 48.7817 66.8958 48.5137 66.2257 47.945C65.8713 47.6443 65.5875 47.2753 65.3744 46.8383C65.1617 46.4067 65.0685 45.9973 65.095 45.6099L66.1623 45.3936C66.1597 46.0728 66.4027 46.6197 66.8911 47.0342C67.2515 47.34 67.6193 47.4831 67.9946 47.4635C68.3674 47.4468 68.7143 47.2494 69.0353 46.8711L69.312 46.545C68.7036 46.6281 68.1388 46.4484 67.6175 46.0061C67.0517 45.5259 66.7794 44.908 66.8006 44.1524C66.8249 43.3994 67.1744 42.6253 67.8493 41.8301ZM68.8508 42.8414C68.4388 43.3269 68.2123 43.793 68.1713 44.2398C68.1358 44.6861 68.2938 45.0584 68.6452 45.3566C69.083 45.7282 69.5669 45.816 70.0968 45.6202L71.9015 43.4937C72.0068 42.953 71.8406 42.4968 71.4028 42.1253C71.0454 41.822 70.6469 41.7271 70.2072 41.8407C69.7705 41.9568 69.3184 42.2904 68.8508 42.8414Z" fill="white"/>
<path d="M35.4623 11.4845C35.4444 11.5056 35.4235 11.5243 35.3991 11.5394L33.2257 12.8771C33.1162 12.9444 32.9714 12.927 32.874 12.8348L30.0598 10.1689C30.0594 10.1686 30.0591 10.1683 30.0587 10.1679L27.2573 7.48856C27.1599 7.39536 27.1356 7.25072 27.1985 7.13786L28.4445 4.90036C28.4589 4.87457 28.4773 4.85226 28.4981 4.83315C28.3695 4.60604 28.3926 4.31891 28.5746 4.12863C28.7991 3.89385 29.1817 3.89407 29.4275 4.12912C29.6732 4.36417 29.6905 4.74636 29.4659 4.98114C29.3394 5.11336 29.1629 5.17101 28.9889 5.15419L29.0352 6.27594C29.0469 6.55947 29.174 6.83708 29.3837 7.03767C29.6317 7.27486 29.9757 7.3885 30.3049 7.3424L32.4287 7.04517C32.4217 6.89094 32.4735 6.73669 32.5858 6.61931C32.8103 6.38453 33.1929 6.38475 33.4387 6.6198C33.6844 6.85485 33.7017 7.23704 33.4771 7.47182C33.3682 7.58569 33.2221 7.64378 33.0724 7.64711C33.0724 7.64767 33.0724 7.64824 33.0723 7.64884L32.8597 9.78041C32.8266 10.1131 32.9552 10.4537 33.2039 10.6915C33.4155 10.894 33.6899 11.0056 33.9763 11.0057L35.102 11.0064C35.0754 10.8313 35.1245 10.6496 35.2525 10.5157C35.4771 10.2809 35.8596 10.2811 36.1054 10.5162C36.3511 10.7512 36.3684 11.1334 36.1438 11.3682C35.9667 11.5534 35.6914 11.5917 35.4623 11.4845ZM32.4127 13.6359C32.5198 13.5239 32.5116 13.3422 32.3944 13.2301L26.905 7.97974C26.7877 7.86764 26.6059 7.86754 26.4988 7.97951L26.0334 8.4661C25.9263 8.57808 25.9345 8.75973 26.0517 8.87183L31.5412 14.1222C31.6584 14.2343 31.8402 14.2344 31.9473 14.1225L32.4127 13.6359Z" fill="white"/>
</g>
<defs>
<filter id="filter0_d" x="0" y="0" width="82" height="71" filterUnits="userSpaceOnUse" color-interpolation-filters="sRGB">
<feFlood flood-opacity="0" result="BackgroundImageFix"/>
<feColorMatrix in="SourceAlpha" type="matrix" values="0 0 0 0 0 0 0 0 0 0 0 0 0 0 0 0 0 0 127 0"/>
<feOffset dy="4"/>
<feGaussianBlur stdDeviation="2"/>
<feColorMatrix type="matrix" values="0 0 0 0 0 0 0 0 0 0 0 0 0 0 0 0 0 0 0.1 0"/>
<feBlend mode="normal" in2="BackgroundImageFix" result="effect1_dropShadow"/>
<feBlend mode="normal" in="SourceGraphic" in2="effect1_dropShadow" result="shape"/>
</filter>
<linearGradient id="paint0_linear" x1="41" y1="0" x2="41" y2="63" gradientUnits="userSpaceOnUse">
<stop stop-color="#5725C3"/>
<stop offset="1" stop-color="#478EF7"/>
</linearGradient>
</defs>
</svg>
