<svg width="12" height="7" viewBox="0 0 12 7" fill="none" xmlns="http://www.w3.org/2000/svg">
<path d="M5.58305 6.72033L0.811235 2.02307C0.581094 1.79653 0.581094 1.42924 0.811235 1.20272L1.36779 0.654861C1.59754 0.428704 1.96989 0.428268 2.20018 0.653894L5.99975 4.37655L9.79929 0.65387C10.0296 0.428244 10.4019 0.428679 10.6317 0.654836L11.1882 1.2027C11.4184 1.42924 11.4184 1.79653 11.1882 2.02305L6.41642 6.7203C6.18631 6.94685 5.81319 6.94685 5.58305 6.72033Z" fill="#F05348"/>
</svg>
