<svg width="290" height="306" viewBox="0 0 290 306" fill="none" xmlns="http://www.w3.org/2000/svg">
<path d="M3.78392 221.691L3.78359 221.692C2.67359 222.296 1.95567 223.104 1.63111 224.003C1.30864 224.897 1.36658 225.904 1.84588 226.928C2.27216 227.541 2.73953 228.124 3.24479 228.675L4.4603 229.165L15.9288 228.212L3.78392 221.691ZM3.78392 221.691C10.0064 218.291 16.2357 214.906 22.4719 211.537L22.4721 211.536M3.78392 221.691L22.4721 211.536M22.4721 211.536C47.2604 198.099 72.0577 184.63 96.8642 171.13L22.4721 211.536ZM277.669 74.3214L277.667 74.3214C275.203 74.2422 273.224 75.3407 271.18 76.4745C270.909 76.6253 270.636 76.7768 270.36 76.9262C240.694 93.05 211.021 109.168 181.341 125.279L96.8644 171.13L277.669 74.3214ZM277.669 74.3214C279.139 74.3544 280.581 74.7391 281.872 75.4431C283.164 76.1471 284.268 77.1497 285.091 78.3666C285.914 79.5834 286.432 80.9788 286.602 82.4352C286.772 83.8917 286.588 85.3665 286.067 86.7355L286.043 86.7974L286.019 86.8605L285.994 86.9237L285.969 86.9868L285.945 87.0499L285.92 87.113L285.896 87.1761L285.871 87.2393L285.847 87.3024L285.822 87.3655L285.798 87.4286L285.773 87.4918L285.749 87.5549L285.724 87.618L285.7 87.6811L285.675 87.7442L285.651 87.8074L285.626 87.8705L285.602 87.9336L285.577 87.9967L285.553 88.0599L285.528 88.123L285.504 88.1861L285.479 88.2492L285.455 88.3123L285.43 88.3755L285.405 88.4386L285.381 88.5017L285.356 88.5648L285.332 88.628L285.307 88.6911L285.283 88.7542L285.258 88.8173L285.234 88.8805L285.209 88.9436L285.185 89.0067L285.16 89.0698L285.136 89.133L285.111 89.1961L285.087 89.2592L285.062 89.3223L285.038 89.3854L285.013 89.4486L284.989 89.5117L284.964 89.5748L284.94 89.6379L284.915 89.7011L284.89 89.7642L284.866 89.8273L284.841 89.8904L284.817 89.9536L284.792 90.0167L284.768 90.0798L284.743 90.1429L284.719 90.2061L284.694 90.2692L284.67 90.3323L284.645 90.3954L284.621 90.4586L284.596 90.5217L284.572 90.5848L284.547 90.6479L284.523 90.7111L284.498 90.7742L284.474 90.8373L284.449 90.9004L284.425 90.9636L284.4 91.0267L284.376 91.0898L284.351 91.1529L284.326 91.2161L284.302 91.2792L284.277 91.3423L284.253 91.4055L284.228 91.4686L284.204 91.5317L284.179 91.5948L284.155 91.658L284.13 91.7211L284.106 91.7842L284.081 91.8473L284.057 91.9105L284.032 91.9736L284.008 92.0367L283.983 92.0998L283.959 92.163L283.934 92.2261L283.91 92.2892L283.885 92.3524L283.86 92.4155L283.836 92.4786L283.811 92.5417L283.787 92.6049L283.762 92.668L283.738 92.7311L283.713 92.7942L283.689 92.8574L283.664 92.9205L283.64 92.9836L283.615 93.0468L283.591 93.1099L283.566 93.173L283.542 93.2361L283.517 93.2993L283.493 93.3624L283.468 93.4255L283.444 93.4887L283.419 93.5518L283.395 93.6149L283.37 93.678L283.345 93.7412L283.321 93.8043L283.296 93.8674L283.272 93.9306L283.247 93.9937L283.223 94.0568L283.198 94.1199L283.174 94.1831L283.149 94.2462L283.125 94.3093L283.1 94.3725L283.076 94.4356L283.051 94.4987L283.027 94.5618L283.002 94.625L282.978 94.6881L282.953 94.7512L282.929 94.8144L282.904 94.8775L282.88 94.9406L282.855 95.0037L282.83 95.0669L282.806 95.13L282.781 95.1931L282.757 95.2563L282.732 95.3194L282.708 95.3825L282.683 95.4457L282.659 95.5088L282.634 95.5719L282.61 95.6351L282.585 95.6982L282.561 95.7613L282.536 95.8244L282.512 95.8876L282.487 95.9507L282.463 96.0138L282.438 96.077L282.414 96.1401L282.389 96.2032L282.364 96.2664L282.34 96.3295L282.315 96.3926L282.291 96.4558L282.266 96.5189L282.242 96.582L282.217 96.6451L282.193 96.7083L282.168 96.7714L282.144 96.8345L282.119 96.8977L282.095 96.9608L282.07 97.0239L282.046 97.0871L282.021 97.1502L281.997 97.2133L281.972 97.2765L281.948 97.3396L281.923 97.4027L281.898 97.4659L281.874 97.529L281.849 97.5921L281.825 97.6553L281.8 97.7184L281.776 97.7815L281.751 97.8447L281.727 97.9078L281.702 97.9709L281.678 98.0341L281.653 98.0972L281.629 98.1603L281.604 98.2235L281.58 98.2866L281.555 98.3497L281.531 98.4129L281.506 98.476L281.482 98.5391L281.457 98.6023L281.432 98.6654L281.408 98.7285L281.383 98.7917L281.359 98.8548L281.334 98.9179L281.31 98.9811L281.285 99.0442L281.261 99.1073L281.236 99.1705L281.212 99.2336L281.187 99.2967L281.163 99.3599L281.138 99.423L281.114 99.4861L281.089 99.5493L281.065 99.6124L281.04 99.6755L281.016 99.7387L280.991 99.8018L280.966 99.8649L280.942 99.9281L280.917 99.9912L280.893 100.054L280.868 100.117L280.844 100.181L280.819 100.244L280.795 100.307L280.77 100.37L280.746 100.433L280.721 100.496L280.697 100.559L280.672 100.623L280.648 100.686L280.623 100.749L280.599 100.812L280.574 100.875L280.549 100.938L280.525 101.001L280.5 101.065L280.476 101.128L280.451 101.191L280.427 101.254L280.402 101.317L280.378 101.38L280.353 101.443L280.329 101.506L280.304 101.57L280.28 101.633L280.255 101.696L280.231 101.759L280.206 101.822L280.182 101.885L280.157 101.948L280.133 102.012L280.108 102.075L280.083 102.138L280.059 102.201L280.034 102.264L280.01 102.327L279.985 102.39L279.961 102.454L279.936 102.517L279.912 102.58L279.887 102.643L279.863 102.706L279.838 102.769L279.814 102.832L279.789 102.895L279.765 102.959L279.74 103.022L279.716 103.085L279.691 103.148L279.666 103.211L279.642 103.274L279.617 103.337L279.593 103.401L279.568 103.464L279.544 103.527L279.519 103.59L279.495 103.653L279.47 103.716L279.446 103.779L279.421 103.843L279.397 103.906L279.372 103.969L279.348 104.032L279.323 104.095L279.299 104.158L279.274 104.221L279.249 104.285L279.225 104.348L279.2 104.411L279.176 104.474L279.151 104.537L279.127 104.6L279.102 104.663L279.078 104.726L279.053 104.79L279.029 104.853L279.004 104.916L278.98 104.979L278.955 105.042L278.931 105.105L278.906 105.168L278.882 105.232L278.857 105.295L278.833 105.358L278.808 105.421L278.783 105.484L278.759 105.547L278.734 105.61L278.71 105.674L278.685 105.737L278.661 105.8L278.636 105.863L278.612 105.926L278.587 105.989L278.563 106.052L278.538 106.116L278.514 106.179L278.489 106.242L278.465 106.305L278.44 106.368L278.415 106.431L278.391 106.494L278.366 106.558L278.342 106.621L278.317 106.684L278.293 106.747L278.268 106.81L278.244 106.873L278.219 106.936L278.195 107L278.17 107.063L278.146 107.126L278.121 107.189L278.097 107.252L278.072 107.315L278.048 107.378L278.023 107.442L277.998 107.505L277.974 107.568L277.949 107.631L277.925 107.694L277.9 107.757L277.876 107.82L277.851 107.884L277.827 107.947L277.802 108.01L277.778 108.073L277.753 108.136L277.729 108.199L277.704 108.262L277.68 108.326L277.655 108.389L277.631 108.452L277.606 108.515L277.581 108.578L277.557 108.641L277.532 108.704L277.508 108.768L277.483 108.831L277.459 108.894L277.434 108.957L277.41 109.02L277.385 109.083L277.361 109.146L277.336 109.21L277.312 109.273L277.287 109.336L277.263 109.399L277.238 109.462L277.214 109.525L277.189 109.588L277.164 109.652L277.14 109.715L277.115 109.778L277.091 109.841L277.066 109.904L277.042 109.967L277.017 110.03L276.993 110.094L276.968 110.157L276.944 110.22L276.919 110.283L276.895 110.346L276.87 110.409L276.846 110.472L276.821 110.536L276.796 110.599L276.772 110.662L276.747 110.725L276.723 110.788L276.698 110.851L276.674 110.914L276.649 110.978L276.625 111.041L276.6 111.104L276.576 111.167L276.551 111.23L276.527 111.293L276.502 111.357L276.478 111.42L276.453 111.483L276.429 111.546L276.404 111.609L276.379 111.672L276.355 111.735L276.33 111.799L276.306 111.862L276.281 111.925L276.257 111.988L276.232 112.051L276.208 112.114L276.183 112.177L276.159 112.241L276.134 112.304L276.11 112.367L276.085 112.43L276.061 112.493L276.036 112.556L276.011 112.619L275.987 112.683L275.962 112.746L275.938 112.809L275.913 112.872L275.889 112.935L275.864 112.998L275.84 113.061L275.815 113.125L275.791 113.188L275.766 113.251L275.742 113.314L275.717 113.377L275.693 113.44L275.668 113.504L275.643 113.567L275.619 113.63L275.594 113.693L275.57 113.756L275.545 113.819L275.521 113.882L275.496 113.946L275.472 114.009L275.447 114.072L275.423 114.135L275.398 114.198L275.374 114.261L275.349 114.324L275.325 114.388L275.3 114.451L275.275 114.514L275.251 114.577L275.226 114.64L275.202 114.703L275.177 114.767L275.153 114.83L275.128 114.893L275.104 114.956L275.079 115.019L275.055 115.082L275.03 115.145L275.006 115.209L274.981 115.272L274.957 115.335L274.932 115.398L274.907 115.461L274.883 115.524L274.858 115.587L274.834 115.651L274.809 115.714L274.785 115.777L274.76 115.84L274.736 115.903L274.711 115.966L274.687 116.03L274.662 116.093L274.638 116.156L274.613 116.219L274.589 116.282L274.564 116.345L274.539 116.408L274.515 116.472L274.49 116.535L274.466 116.598L274.441 116.661L274.417 116.724L274.392 116.787L274.368 116.85L274.343 116.914L274.319 116.977L274.294 117.04L274.27 117.103L274.245 117.166L274.221 117.229L274.196 117.293L274.171 117.356L274.147 117.419L274.122 117.482L274.098 117.545L274.073 117.608L274.049 117.671L274.024 117.735L274 117.798L273.975 117.861L273.951 117.924L273.926 117.987L273.902 118.05L273.877 118.114L273.853 118.177L273.828 118.24L273.803 118.303L273.779 118.366L273.754 118.429L273.73 118.492L273.705 118.556L273.681 118.619L273.656 118.682L273.632 118.745L273.607 118.808L273.583 118.871L273.558 118.935L273.534 118.998L273.509 119.061L273.376 119.404L273.242 119.748L273.109 120.091L272.975 120.434L272.842 120.778L272.709 121.121L272.575 121.465L272.442 121.808L272.308 122.151L272.175 122.495L272.042 122.838L271.908 123.182L271.775 123.525L271.641 123.868L271.508 124.212L271.375 124.555L271.241 124.899L271.108 125.242L270.974 125.585L270.841 125.929L270.707 126.272L270.574 126.616L270.441 126.959L270.307 127.302L270.174 127.646L270.04 127.989L269.907 128.333L269.774 128.676L269.64 129.019L269.507 129.363L269.373 129.706L269.24 130.05L269.107 130.393L268.973 130.736L268.84 131.08L268.706 131.423L268.573 131.767L268.44 132.11L268.306 132.453L268.173 132.797L268.039 133.14L267.906 133.484L267.773 133.827L267.639 134.17L267.506 134.514L267.372 134.857L267.239 135.201L267.105 135.544L266.972 135.887L266.839 136.231L266.705 136.574L266.572 136.918L266.438 137.261L266.305 137.604L266.172 137.948L266.038 138.291L265.905 138.635L265.771 138.978L265.638 139.321L265.505 139.665L265.371 140.008L265.238 140.352L265.104 140.695L264.971 141.038L264.838 141.382L264.704 141.725L264.571 142.069L264.437 142.412L264.304 142.755L264.171 143.099L264.037 143.442L263.904 143.786L263.77 144.129L263.637 144.472L263.503 144.816L263.37 145.159L263.237 145.503L263.103 145.846L262.97 146.189L262.836 146.533L262.703 146.876L262.57 147.22L262.436 147.563L262.303 147.906L262.169 148.25L262.036 148.593L261.903 148.937L261.769 149.28L261.636 149.623L261.502 149.967L261.369 150.31L261.236 150.654L261.102 150.997L260.969 151.34L260.835 151.684L260.702 152.027L260.569 152.371L260.435 152.714L260.302 153.057L260.168 153.401L260.035 153.744L259.901 154.088L259.768 154.431L259.635 154.774L259.501 155.118L259.368 155.461L259.234 155.805L259.101 156.148L258.968 156.491L258.834 156.835L258.701 157.178L258.567 157.522L258.434 157.865L258.301 158.208L258.167 158.552L258.034 158.895L257.9 159.239L257.767 159.582L257.634 159.926L257.5 160.269L257.367 160.612L257.233 160.956L257.1 161.299L256.967 161.643L256.833 161.986L256.7 162.329L256.566 162.673L256.433 163.016L256.299 163.36L256.166 163.703L256.033 164.046L255.899 164.39L255.766 164.733L255.632 165.077L255.499 165.42L255.366 165.763L255.232 166.107L255.099 166.45L254.965 166.794L254.832 167.137L254.699 167.48L254.565 167.824L254.432 168.167L254.298 168.511L254.165 168.854L254.032 169.197L253.898 169.541L253.765 169.884L253.631 170.228L253.498 170.571L253.365 170.914L253.231 171.258L253.098 171.601L252.964 171.945L252.831 172.288L252.697 172.631L252.564 172.975L252.431 173.318L252.297 173.662L252.164 174.005L252.03 174.348L251.897 174.692L251.764 175.035L251.63 175.379L251.497 175.722L251.363 176.065L251.23 176.409L251.097 176.752L250.963 177.096L250.83 177.439L250.696 177.782L250.563 178.126L250.43 178.469L250.296 178.813L250.163 179.156L250.029 179.499L249.896 179.843L249.763 180.186L249.629 180.53L249.496 180.873L249.362 181.216L249.229 181.56L249.095 181.903L248.962 182.247L248.829 182.59L248.695 182.933L248.562 183.277L248.428 183.62L248.295 183.964L248.162 184.307L248.028 184.65L247.895 184.994L247.761 185.337L247.628 185.681L247.495 186.024L247.361 186.367L247.228 186.711L247.094 187.054L246.961 187.398L246.828 187.741L246.694 188.084L246.561 188.428L246.427 188.771L246.294 189.115L246.161 189.458L246.027 189.801L245.894 190.145L245.76 190.488L245.627 190.832L245.493 191.175L245.36 191.518L245.227 191.862L245.093 192.205L244.96 192.549L244.826 192.892L244.693 193.235L244.56 193.579L244.426 193.922L244.293 194.266L244.159 194.609L244.026 194.952L243.893 195.296L243.759 195.639L243.626 195.983L243.492 196.326L243.359 196.669L243.226 197.013L243.092 197.356L242.959 197.7L242.825 198.043L242.692 198.386L242.558 198.73L242.425 199.073L242.292 199.417L242.158 199.76L242.025 200.103L241.891 200.447L241.758 200.79L241.625 201.134L241.491 201.477L241.358 201.82L241.224 202.164L241.091 202.507L240.958 202.851L240.824 203.194L240.691 203.537L240.557 203.881L240.424 204.224L240.291 204.568L240.157 204.911L240.024 205.254L239.89 205.598L239.757 205.941L239.624 206.285L239.49 206.628L239.357 206.971L239.223 207.315L239.09 207.658L238.956 208.002L238.823 208.345L238.69 208.688L238.556 209.032L238.423 209.375L238.289 209.719L238.156 210.062L238.023 210.405L237.889 210.749L237.756 211.092L237.622 211.436L237.489 211.779L237.356 212.122L237.222 212.466L237.089 212.809L236.955 213.153L236.822 213.496L236.689 213.839L236.555 214.183L236.422 214.526L236.288 214.87L236.155 215.213L236.022 215.556L235.888 215.9L235.755 216.243L235.621 216.587L235.488 216.93L235.354 217.273L235.221 217.617L235.088 217.96L234.954 218.304L234.821 218.647L234.687 218.99L234.554 219.334L234.421 219.677L234.287 220.021L234.154 220.364L234.02 220.707L233.887 221.051L233.754 221.394L233.62 221.738L233.487 222.081L233.353 222.424L233.22 222.768L233.087 223.111L232.953 223.455L232.82 223.798L232.686 224.141L232.553 224.485L232.42 224.828L232.286 225.172L232.153 225.515L232.019 225.858L231.886 226.202L231.752 226.545L231.619 226.889L231.486 227.232L231.352 227.575L231.219 227.919L231.085 228.262L230.952 228.606L230.819 228.949L230.685 229.292L230.552 229.636L230.418 229.979L230.285 230.323L230.152 230.666L230.018 231.009L229.885 231.353L229.751 231.696L229.618 232.04L229.485 232.383L229.351 232.726L229.218 233.07L229.084 233.413L228.951 233.757L228.818 234.1L228.684 234.443L228.551 234.787L228.417 235.13L228.284 235.474L228.15 235.817L228.017 236.16L227.884 236.504L227.75 236.847L227.617 237.191L227.483 237.534L227.35 237.877L227.217 238.221L227.083 238.564L226.95 238.908L226.816 239.251L226.683 239.594L226.55 239.938L226.416 240.281L226.283 240.625L226.149 240.968L226.016 241.311L225.883 241.655L225.749 241.998L225.616 242.342L225.482 242.685L225.349 243.028L225.216 243.372L225.082 243.715L224.949 244.059L224.815 244.402L224.682 244.745L224.548 245.089L224.415 245.432L224.282 245.776L224.148 246.119L224.015 246.462L223.881 246.806L223.748 247.149L223.615 247.493L223.481 247.836L223.348 248.179L223.214 248.523L223.081 248.866L222.948 249.21L222.814 249.553L222.681 249.896L222.547 250.24L222.414 250.583L222.281 250.927L222.147 251.27L222.014 251.613L221.88 251.957L221.747 252.3L221.614 252.644L221.48 252.987L221.347 253.33L221.213 253.674L221.08 254.017L220.946 254.361L220.813 254.704L220.68 255.047L220.546 255.391L220.413 255.734L220.279 256.078L220.146 256.421L220.013 256.764L219.879 257.108L219.746 257.451L219.612 257.795L219.479 258.138L219.346 258.481L219.212 258.825L219.079 259.168L218.945 259.512L218.812 259.855L218.679 260.198L218.545 260.542L218.412 260.885L218.278 261.229L218.145 261.572L218.012 261.915L217.878 262.259L217.745 262.602L217.611 262.946L217.478 263.289L217.344 263.632L217.211 263.976L217.078 264.319L216.944 264.663L216.811 265.006L216.677 265.349L216.544 265.693L216.411 266.036L216.277 266.38L216.144 266.723L216.01 267.066L215.877 267.41L215.744 267.753L215.61 268.097L215.477 268.44L215.343 268.783L215.21 269.127L215.077 269.47L214.943 269.814L214.81 270.157L214.676 270.5L214.543 270.844L214.41 271.187L214.276 271.531L214.143 271.874L214.009 272.217L213.876 272.561L213.742 272.904L213.609 273.248L213.476 273.591L213.342 273.934L213.209 274.278L213.075 274.621L212.942 274.965L212.809 275.308L212.675 275.651L212.542 275.995L212.408 276.338L212.275 276.682L212.142 277.025L212.008 277.368L211.875 277.712L211.741 278.055L211.608 278.399L211.475 278.742L211.341 279.085L211.208 279.429L211.074 279.772L210.941 280.116L210.807 280.459L210.674 280.802L210.541 281.146L210.407 281.489L210.274 281.833L210.14 282.176L210.007 282.519L209.874 282.863L209.74 283.206L209.607 283.55L209.473 283.893L209.34 284.236L209.207 284.58L209.073 284.923L208.94 285.267L208.806 285.61L208.673 285.953L208.54 286.297L208.406 286.64L208.273 286.984L208.139 287.327L208.006 287.67L207.873 288.014L207.739 288.357L207.606 288.701L207.472 289.044L207.339 289.387L207.205 289.731L207.072 290.074L206.939 290.418L206.805 290.761L206.672 291.104L206.538 291.448L206.405 291.791L206.272 292.135L206.138 292.478L206.005 292.822L205.871 293.165L205.738 293.508L205.605 293.852L205.471 294.195L205.338 294.538L205.204 294.882C204.39 296.979 203.029 298.437 201.399 299.157C199.77 299.876 197.852 299.868 195.902 298.993C195.114 298.635 194.406 298.125 193.818 297.491C193.229 296.858 192.774 296.114 192.477 295.303L192.477 295.303M277.669 74.3214L192.477 295.303M192.477 295.303L192.474 295.296M192.477 295.303L192.474 295.296M192.474 295.296C190.352 290.137 188.24 284.974 186.129 279.811C180.716 266.576 175.303 253.341 169.711 240.182L169.711 240.182M192.474 295.296L169.711 240.182M169.711 240.182C165.191 229.562 157 222.786 145.888 219.521L145.888 219.521M169.711 240.182L145.888 219.521M145.888 219.521C140.348 217.901 134.785 218.111 129.164 218.61M145.888 219.521L129.164 218.61M129.164 218.61C91.4234 221.825 53.6783 225.026 15.9291 228.212L129.164 218.61Z" stroke="#858585" stroke-width="0.4"/>
</svg>
