<svg width="36" height="35" viewBox="0 0 36 35" fill="none" xmlns="http://www.w3.org/2000/svg">
<ellipse cx="18" cy="17.5" rx="18" ry="17.5" fill="#F2FFEE"/>
<path d="M20.6997 10.9999H15.9807C15.2454 10.9999 14.6516 11.5443 14.6516 12.2185V13.1125H15.9807V12.2185H20.6997V13.1125H22.0289V12.2185C22.0289 11.5443 21.4351 10.9999 20.6997 10.9999Z" fill="#147C18"/>
<path d="M18.9297 20.687V20.9429C18.9297 21.2422 18.6663 21.4837 18.3399 21.4837C18.0135 21.4837 17.75 21.2422 17.75 20.9429V20.687H12.4412C12.1659 20.687 11.9024 20.6473 11.6547 20.5716V23.0303C11.6547 23.4269 12.0086 23.7513 12.4412 23.7513H24.2386C24.6711 23.7513 25.0251 23.4269 25.0251 23.0303V20.5716C24.7773 20.6437 24.5138 20.687 24.2386 20.687H18.9297ZM25.0251 14.0175H11.6547C11.2221 14.0175 10.8682 14.342 10.8682 14.7385V18.3437C10.8682 19.1404 11.5721 19.7857 12.4412 19.7857H17.75V19.3639C17.75 19.0647 18.0135 18.8231 18.3399 18.8231C18.6663 18.8231 18.9297 19.0647 18.9297 19.3639V19.7857H24.2386C25.1076 19.7857 25.8116 19.1404 25.8116 18.3437V14.7385C25.8116 14.3384 25.4576 14.0175 25.0251 14.0175Z" fill="#147C18"/>
</svg>
