<svg width="19" height="16" viewBox="0 0 19 16" fill="none" xmlns="http://www.w3.org/2000/svg">
<path d="M17.4166 2.37503H13.4583V1.58334C13.4583 0.710124 12.7482 0 11.875 0H7.12499C6.25177 0 5.54164 0.710087 5.54164 1.58334V2.375H1.58334C0.710087 2.37503 0 3.08512 0 3.95834V6.33333C0 7.20659 0.710087 7.91668 1.58334 7.91668H7.91668V7.52083C7.91668 7.30204 8.09373 7.12499 8.31252 7.12499H10.6875C10.9063 7.12499 11.0834 7.30204 11.0834 7.52083V7.91668H17.4167C18.2899 7.91668 19 7.20659 19 6.33333V3.95834C19 3.08512 18.2899 2.37503 17.4166 2.37503ZM11.875 2.37503H7.12499V1.58334H11.875V2.37503Z" fill="#3E3E3E"/>
<path d="M18.7804 8.34551C18.6455 8.27864 18.4843 8.29412 18.3652 8.38455C18.0838 8.59756 17.756 8.71004 17.4166 8.71004H11.0833V9.89754C11.0833 10.1163 10.9063 10.2934 10.6875 10.2934H8.31248C8.09369 10.2934 7.91664 10.1163 7.91664 9.89754V8.71004H1.58334C1.24394 8.71004 0.916155 8.59756 0.634718 8.38455C0.515263 8.29334 0.354468 8.27786 0.219539 8.34551C0.0850545 8.41242 0 8.54962 0 8.70002V14.2517C0 15.1249 0.710087 15.8351 1.58334 15.8351H17.4167C18.2899 15.8351 19 15.125 19 14.2517V8.70002C19 8.54962 18.9149 8.41242 18.7804 8.34551Z" fill="#3E3E3E"/>
</svg>
