<svg width="24" height="23" viewBox="0 0 24 23" fill="none" xmlns="http://www.w3.org/2000/svg">
<path d="M12 0C5.37321 0 0 5.14933 0 11.5C0 17.8507 5.37321 23 12 23C18.6268 23 24 17.8507 24 11.5C24 5.14933 18.6268 0 12 0ZM11.1429 5.95536C11.1429 5.84241 11.2393 5.75 11.3571 5.75H12.6429C12.7607 5.75 12.8571 5.84241 12.8571 5.95536V12.9375C12.8571 13.0504 12.7607 13.1429 12.6429 13.1429H11.3571C11.2393 13.1429 11.1429 13.0504 11.1429 12.9375V5.95536ZM12 17.25C11.6636 17.2434 11.3432 17.1107 11.1077 16.8804C10.8722 16.65 10.7403 16.3404 10.7403 16.0179C10.7403 15.6954 10.8722 15.3857 11.1077 15.1554C11.3432 14.925 11.6636 14.7923 12 14.7857C12.3364 14.7923 12.6568 14.925 12.8923 15.1554C13.1278 15.3857 13.2597 15.6954 13.2597 16.0179C13.2597 16.3404 13.1278 16.65 12.8923 16.8804C12.6568 17.1107 12.3364 17.2434 12 17.25Z" fill="#E9BC48"/>
</svg>
