<svg width="146" height="147" viewBox="0 0 146 147" fill="none" xmlns="http://www.w3.org/2000/svg">
<path fill-rule="evenodd" clip-rule="evenodd" d="M145.38 73.66C145.38 113.739 113.087 146.23 73.2522 146.23C33.4175 146.23 1.125 113.739 1.125 73.66C1.125 33.5811 33.4175 1.09 73.2522 1.09C113.087 1.09 145.38 33.5811 145.38 73.66Z" stroke="#E5E5E5" stroke-dasharray="5.02 5.02"/>
</svg>
