<svg width="65" height="65" viewBox="0 0 65 65" fill="none" xmlns="http://www.w3.org/2000/svg">
<path fill-rule="evenodd" clip-rule="evenodd" d="M32.5 65C50.4493 65 65 50.4493 65 32.5C65 14.5507 50.4493 0 32.5 0C14.5507 0 0 14.5507 0 32.5C0 50.4493 14.5507 65 32.5 65Z" fill="white"/>
<g clip-path="url(#clip0)">
<path d="M33.7963 42.5755C33.7963 43.0111 33.4432 43.3642 33.0076 43.3642C32.572 43.3642 32.219 43.0111 32.219 42.5755C32.219 42.1399 32.572 41.7869 33.0076 41.7869C33.4432 41.7869 33.7963 42.1399 33.7963 42.5755Z" fill="#1D293F"/>
<path d="M50.5945 35.4775C50.5945 32.8682 48.4719 30.7456 45.8626 30.7456C43.2533 30.7456 41.1307 32.8682 41.1307 35.4775C41.1307 38.0868 43.2533 40.2094 45.8626 40.2094C48.4719 40.2094 50.5945 38.0868 50.5945 35.4775ZM45.8626 38.6321C44.1233 38.6321 42.708 37.2168 42.708 35.4775C42.708 33.7382 44.1233 32.3229 45.8626 32.3229C47.602 32.3229 49.0172 33.7382 49.0172 35.4775C49.0172 37.2168 47.602 38.6321 45.8626 38.6321Z" fill="#1D293F"/>
<path d="M45.8626 40.2094C43.8753 40.2094 41.8935 41.0344 40.5435 42.372C38.7666 40.0369 36.0267 38.6321 33.0076 38.6321C30.1164 38.6321 27.3149 39.9512 25.472 42.372C24.1218 41.0347 22.1403 40.2094 20.1527 40.2094C16.1771 40.2094 12.8182 43.4598 12.8182 47.3072V48.8845C12.8182 49.3201 13.1713 49.6732 13.6069 49.6732H52.4084C52.844 49.6732 53.197 49.3201 53.197 48.8845V47.3072C53.197 43.4598 49.8382 40.2094 45.8626 40.2094ZM14.3955 47.3072C14.3955 44.3147 17.032 41.7867 20.1527 41.7867C21.8603 41.7867 23.5537 42.5433 24.6021 43.746C23.9089 45.0848 23.5439 46.5771 23.5439 48.0959H14.3955V47.3072ZM33.0076 40.2094C37.396 40.2094 40.8941 43.77 40.8941 48.0959H25.1211C25.1211 43.7124 28.6907 40.2094 33.0076 40.2094ZM51.6197 48.0959H42.4714C42.4714 46.5771 42.1064 45.0848 41.4132 43.746C42.4616 42.5433 44.155 41.7867 45.8626 41.7867C48.9833 41.7867 51.6197 44.3147 51.6197 47.3072V48.0959Z" fill="#1D293F"/>
<path d="M24.8846 35.4775C24.8846 32.8682 22.762 30.7456 20.1527 30.7456C17.5433 30.7456 15.4208 32.8682 15.4208 35.4775C15.4208 38.0868 17.5433 40.2094 20.1527 40.2094C22.762 40.2094 24.8846 38.0868 24.8846 35.4775ZM20.1527 38.6321C18.4133 38.6321 16.9981 37.2168 16.9981 35.4775C16.9981 33.7382 18.4133 32.3229 20.1527 32.3229C21.892 32.3229 23.3073 33.7382 23.3073 35.4775C23.3073 37.2168 21.892 38.6321 20.1527 38.6321Z" fill="#1D293F"/>
<path d="M39.3169 32.3229C39.3169 28.8439 36.4867 26.0137 33.0077 26.0137C29.5287 26.0137 26.6985 28.8439 26.6985 32.3229C26.6985 35.8018 29.5287 38.632 33.0077 38.632C36.4867 38.632 39.3169 35.8018 39.3169 32.3229ZM33.0077 37.0547C30.3984 37.0547 28.2758 34.9322 28.2758 32.3229C28.2758 29.7135 30.3984 27.591 33.0077 27.591C35.617 27.591 37.7396 29.7135 37.7396 32.3229C37.7396 34.9322 35.617 37.0547 33.0077 37.0547Z" fill="#1D293F"/>
<path d="M39.2491 16.4049C39.1564 16.1193 38.9096 15.9114 38.6124 15.8683L35.2107 15.3744L33.6876 12.2605C33.5555 11.9897 33.2807 11.8181 32.9794 11.8181C32.6781 11.8181 32.4033 11.9897 32.2708 12.2602L30.7481 15.3744L27.3464 15.8679C27.0491 15.9111 26.8024 16.1193 26.7096 16.4049C26.6169 16.6905 26.6942 17.0038 26.9093 17.2133L29.3725 19.614L28.7912 23.0043C28.7404 23.3 28.8621 23.5992 29.1051 23.7754C29.3467 23.951 29.6683 23.9759 29.9357 23.8355L32.9794 22.235L36.0243 23.8355C36.2899 23.9753 36.6118 23.9519 36.8548 23.7754C37.0976 23.5989 37.2193 23.3 37.1685 23.004L36.5865 19.614L39.0495 17.2133C39.2645 17.0038 39.3419 16.6905 39.2491 16.4049ZM35.1882 18.7739C35.0024 18.9551 34.9174 19.2163 34.9615 19.472L35.3432 21.6959L33.3463 20.646C33.1165 20.5253 32.842 20.5253 32.6122 20.646L30.6159 21.6959L30.9973 19.472C31.041 19.216 30.956 18.9551 30.7702 18.7739L29.1547 17.1994L31.3867 16.8753C31.6448 16.838 31.8676 16.6754 31.9819 16.4413L32.9794 14.4019L33.9766 16.4413C34.0912 16.6757 34.3139 16.838 34.5718 16.8753L36.804 17.1994L35.1882 18.7739Z" fill="#1D293F"/>
<path d="M51.0368 22.3158C50.9441 22.0303 50.6973 21.8223 50.4 21.7792L48.0954 21.4443L47.0649 19.3556C46.9321 19.0864 46.6583 18.916 46.3579 18.916C46.3579 18.916 46.3579 18.916 46.3576 18.916C46.0575 18.916 45.7834 19.0864 45.6506 19.3556L44.6195 21.4443L42.3145 21.7792C42.0176 21.8223 41.7708 22.0303 41.6781 22.3158C41.585 22.6014 41.6624 22.9147 41.8774 23.1242L43.545 24.7505L43.1513 27.0456C43.1007 27.3413 43.2221 27.6401 43.4652 27.8167C43.7079 27.9932 44.0299 28.0166 44.2954 27.877L46.3576 26.7936L48.4192 27.877C48.6847 28.0166 49.007 27.9932 49.2497 27.8167C49.4925 27.6404 49.6139 27.3413 49.5633 27.0456L49.1696 24.7505L50.8375 23.1242C51.0525 22.9147 51.1295 22.6014 51.0368 22.3158ZM47.7719 23.9107C47.5859 24.0918 47.5011 24.3528 47.5452 24.6085L47.7387 25.7372L46.7248 25.2046C46.495 25.0838 46.2205 25.0838 45.991 25.2046L44.9762 25.7375L45.17 24.6085C45.2137 24.3528 45.129 24.0918 44.9433 23.9107L44.1226 23.1103L45.2566 22.9458C45.5135 22.9085 45.7356 22.7471 45.8505 22.5145L46.3576 21.4871L46.8644 22.5142C46.9793 22.7471 47.2014 22.9085 47.4583 22.9458L48.5923 23.1103L47.7719 23.9107Z" fill="#1D293F"/>
<path d="M24.2228 22.3158C24.1301 22.0303 23.8834 21.8223 23.5861 21.7792L21.2814 21.4443L20.251 19.3556C20.1182 19.0864 19.8443 18.916 19.5439 18.916C19.2436 18.916 18.9694 19.0864 18.8366 19.3556L17.8055 21.4443L15.5006 21.7792C15.2036 21.8223 14.9568 22.0303 14.8641 22.3158C14.7711 22.6014 14.8484 22.9147 15.0634 23.1242L16.731 24.7505L16.3376 27.0456C16.2868 27.3413 16.4084 27.6401 16.6512 27.8166C16.894 27.9932 17.2159 28.0166 17.4818 27.877L19.5436 26.7936L21.6052 27.877C21.8726 28.0175 22.1942 27.9922 22.4358 27.8166C22.6785 27.6404 22.8002 27.3413 22.7494 27.0456L22.3557 24.7505L24.0235 23.1242C24.2386 22.9147 24.3156 22.6014 24.2228 22.3158ZM20.9577 23.9107C20.7719 24.0918 20.6872 24.3528 20.7309 24.6085L20.9247 25.7372L19.9105 25.2046C19.681 25.0838 19.4065 25.0838 19.177 25.2046L18.162 25.7375L18.3557 24.6085C18.3998 24.3528 18.3148 24.0918 18.129 23.9107L17.3083 23.1103L18.4426 22.9458C18.6992 22.9085 18.9213 22.7471 19.0362 22.5145L19.5433 21.4871L20.0501 22.5142C20.165 22.7471 20.3871 22.9085 20.644 22.9458L21.778 23.1103L20.9577 23.9107Z" fill="#1D293F"/>
<path d="M36.4634 42.8202C36.0993 42.5808 35.6104 42.6821 35.3713 43.0463C35.1319 43.4101 35.2333 43.899 35.5974 44.1384C36.3266 44.6174 36.9095 45.2853 37.2828 46.0696C37.4695 46.4624 37.9396 46.6303 38.3337 46.4427C38.7271 46.2557 38.894 45.785 38.707 45.3919C38.2098 44.3469 37.4338 43.4575 36.4634 42.8202Z" fill="#1D293F"/>
</g>
<defs>
<clipPath id="clip0">
<rect width="40.3788" height="40.3788" fill="white" transform="translate(12.8182 11.8181)"/>
</clipPath>
</defs>
</svg>
