<svg width="65" height="65" viewBox="0 0 65 65" fill="none" xmlns="http://www.w3.org/2000/svg">
<path fill-rule="evenodd" clip-rule="evenodd" d="M32.5 65C50.4493 65 65 50.4493 65 32.5C65 14.5507 50.4493 0 32.5 0C14.5507 0 0 14.5507 0 32.5C0 50.4493 14.5507 65 32.5 65Z" fill="white"/>
<g clip-path="url(#clip0)">
<path d="M26.1881 24.1548C26.1881 24.5655 25.8552 24.8984 25.4444 24.8984C25.0337 24.8984 24.7008 24.5655 24.7008 24.1548C24.7008 23.744 25.0337 23.4111 25.4444 23.4111C25.8552 23.4111 26.1881 23.744 26.1881 24.1548Z" fill="#1D293F"/>
<path d="M32.1362 17.4624C32.547 17.4624 32.8799 17.1295 32.8799 16.7187C32.8799 16.308 32.547 15.9751 32.1362 15.9751C28.9819 15.9751 26.1607 17.9774 25.1167 20.9578C24.9807 21.3453 25.1849 21.7697 25.5725 21.9053C25.9576 22.0404 26.3835 21.8394 26.5203 21.4493C27.3557 19.0647 29.6125 17.4624 32.1362 17.4624Z" fill="#1D293F"/>
<path d="M15.037 22.6506C15.037 23.061 15.3699 23.3942 15.7806 23.3942H18.7552C19.1659 23.3942 19.4988 23.061 19.4988 22.6506C19.4988 22.2398 19.1659 21.9241 18.7552 21.9241H15.7806C15.3699 21.9241 15.037 22.2398 15.037 22.6506Z" fill="#1D293F"/>
<path d="M49.2442 22.6506C49.2442 22.2398 48.9113 21.9241 48.5005 21.9241H45.526C45.1152 21.9241 44.7823 22.2398 44.7823 22.6506C44.7823 23.061 45.1152 23.3942 45.526 23.3942H48.5005C48.9113 23.3942 49.2442 23.061 49.2442 22.6506Z" fill="#1D293F"/>
<path d="M18.345 31.4751L20.9207 29.9878C21.2766 29.7824 21.3983 29.3275 21.1929 28.972C20.9875 28.6161 20.5329 28.4941 20.1771 28.6998L17.6014 30.1871C17.2455 30.3924 17.1238 30.847 17.3292 31.2029C17.5351 31.5596 17.9903 31.6796 18.345 31.4751Z" fill="#1D293F"/>
<path d="M45.9374 13.8258L43.3614 15.3131C43.0059 15.5185 42.8839 15.9734 43.0892 16.3289C43.2952 16.6859 43.7504 16.8059 44.1051 16.6011L46.6811 15.1138C47.0366 14.9084 47.1586 14.4538 46.9533 14.098C46.7476 13.7424 46.293 13.6204 45.9374 13.8258Z" fill="#1D293F"/>
<path d="M17.3292 14.0984C17.1238 14.4542 17.2455 14.9088 17.6014 15.1142L20.1771 16.6015C20.5321 16.8062 20.9872 16.6857 21.1929 16.3293C21.3983 15.9737 21.2766 15.5188 20.9207 15.3135L18.345 13.8262C17.9894 13.6211 17.5345 13.7428 17.3292 14.0984Z" fill="#1D293F"/>
<path d="M45.9374 31.474C46.2921 31.6788 46.7473 31.5582 46.9533 31.2018C47.1586 30.8459 47.0366 30.3913 46.6811 30.186L44.1051 28.6987C43.7495 28.4933 43.2946 28.615 43.0892 28.9709C42.8839 29.3264 43.0059 29.7813 43.3614 29.9867L45.9374 31.474Z" fill="#1D293F"/>
<path d="M16.6723 50.7809C16.8129 50.9662 17.0319 51.0748 17.2643 51.0748H47.0096C47.242 51.0748 47.4613 50.9662 47.6019 50.7809C47.7425 50.5958 47.7884 50.3556 47.7259 50.1316C47.7259 50.1316 45.9862 43.8868 45.9848 43.8821C45.6039 42.6124 44.5658 41.6347 43.2751 41.3305L34.7991 39.3366C35.9305 38.4913 36.5986 37.183 36.5986 35.7558C36.5986 34.3882 37.2938 32.5814 38.4856 31.6638C41.0271 29.7053 42.6114 26.6236 42.5454 23.2063C42.4394 17.6871 37.8097 13.0818 32.2905 13.0016C26.4767 12.9168 21.7261 17.5951 21.7261 23.4117C21.7261 26.6988 23.2303 29.7245 25.8525 31.7129C26.9685 32.5585 27.6753 34.3087 27.6753 35.7558C27.6753 37.2202 28.3843 38.5218 29.4774 39.3361C20.1357 41.5339 26.683 39.9934 20.9988 41.3305C19.7081 41.6347 18.6699 42.6121 18.2891 43.8821C18.2877 43.8868 16.548 50.1316 16.548 50.1316C16.4855 50.3556 16.5314 50.5958 16.6723 50.7809ZM32.1371 42.8068L30.2731 40.6766L32.1371 40.238L34.0008 40.6766L32.1371 42.8068ZM28.6344 41.0621L31.019 43.7874L28.0142 45.7906L26.2751 41.6172L28.6344 41.0621ZM35.6398 41.0621L37.9988 41.6172L36.2596 45.7906L33.2549 43.7874L35.6398 41.0621ZM35.1024 35.9789C34.9902 37.4999 33.7223 38.7304 32.1371 38.7304C30.5737 38.7304 29.2892 37.5179 29.1721 35.9789H35.1024ZM26.7509 30.5277C24.5029 28.8229 23.2134 26.2291 23.2134 23.4117C23.2134 18.4366 27.2758 14.4154 32.269 14.4889C36.9434 14.5569 40.9687 18.5621 41.0584 23.2348C41.1136 26.0958 39.8451 28.7386 37.5782 30.4856C36.3628 31.4212 35.5439 32.9756 35.2424 34.4919H32.8807V28.0606L34.4098 26.5853C34.7053 26.3003 34.7137 25.8294 34.4284 25.5337C34.1435 25.2383 33.6726 25.2299 33.3772 25.5151L32.1368 26.7116L30.8967 25.5151C30.601 25.2299 30.1304 25.2383 29.8452 25.5337C29.5602 25.8294 29.5686 26.3003 29.8641 26.5853L31.3932 28.0606V34.4919H29.037C28.7271 32.8827 27.8696 31.3753 26.7509 30.5277ZM19.7157 44.3031C19.9458 43.544 20.5674 42.9601 21.3395 42.7783L24.8079 41.9623L26.9888 47.1966C27.1689 47.6291 27.6994 47.7883 28.0877 47.5292L32.1371 44.8297L36.1862 47.5292C36.5745 47.7883 37.105 47.6291 37.2851 47.1966L39.466 41.9623L42.9344 42.7783C43.7065 42.9601 44.3281 43.544 44.5582 44.3031L46.0304 49.5875H18.2435L19.7157 44.3031Z" fill="#1D293F"/>
</g>
<defs>
<clipPath id="clip0">
<rect width="38" height="38" fill="white" transform="translate(15 13)"/>
</clipPath>
</defs>
</svg>
