<svg width="16" height="20" viewBox="0 0 16 20" fill="none" xmlns="http://www.w3.org/2000/svg">
<path d="M11.7446 4.79229C11.7446 4.69526 11.668 4.61586 11.5743 4.61586H3.40422C3.3106 4.61586 3.23401 4.69526 3.23401 4.79229V5.85086C3.23401 5.94789 3.3106 6.02729 3.40422 6.02729H11.5743C11.668 6.02729 11.7446 5.94789 11.7446 5.85086V4.79229ZM11.5743 7.79156H3.40422C3.3106 7.79156 3.23401 7.87096 3.23401 7.96799V9.02656C3.23401 9.12359 3.3106 9.20298 3.40422 9.20298H11.5743C11.668 9.20298 11.7446 9.12359 11.7446 9.02656V7.96799C11.7446 7.87096 11.668 7.79156 11.5743 7.79156ZM7.31907 10.9673H3.40422C3.3106 10.9673 3.23401 11.0467 3.23401 11.1437V12.2023C3.23401 12.2993 3.3106 12.3787 3.40422 12.3787H7.31907C7.41269 12.3787 7.48928 12.2993 7.48928 12.2023V11.1437C7.48928 11.0467 7.41269 10.9673 7.31907 10.9673ZM6.29781 17.7597H1.5319V2.23409H13.4467V9.82048C13.4467 9.91752 13.5233 9.99691 13.6169 9.99691H14.8084C14.902 9.99691 14.9786 9.91752 14.9786 9.82048V1.35195C14.9786 0.961605 14.6743 0.64624 14.2977 0.64624H0.680844C0.304252 0.64624 0 0.961605 0 1.35195V18.6419C0 19.0322 0.304252 19.3476 0.680844 19.3476H6.29781C6.39142 19.3476 6.46802 19.2682 6.46802 19.1712V17.9362C6.46802 17.8391 6.39142 17.7597 6.29781 17.7597ZM13.8892 16.119C14.5062 15.5389 14.8935 14.7009 14.8935 13.7681C14.8935 12.0148 13.5211 10.5924 11.8297 10.5924C10.1382 10.5924 8.76587 12.0148 8.76587 13.7681C8.76587 14.7009 9.1531 15.5389 9.77011 16.119C8.55736 16.8357 7.72332 18.1633 7.65949 19.6938C7.65524 19.7931 7.73396 19.8769 7.8297 19.8769H8.8531C8.94246 19.8769 9.01693 19.8041 9.02331 19.7093C9.10629 18.1832 10.3339 16.9658 11.8297 16.9658C13.3254 16.9658 14.553 18.1832 14.636 19.7093C14.6403 19.8019 14.7147 19.8769 14.8062 19.8769H15.8296C15.9275 19.8769 16.0041 19.7931 15.9998 19.6938C15.9381 18.1611 15.102 16.8357 13.8892 16.119ZM11.8297 12.0038C12.7701 12.0038 13.5318 12.7933 13.5318 13.7681C13.5318 14.7428 12.7701 15.5323 11.8297 15.5323C10.8892 15.5323 10.1276 14.7428 10.1276 13.7681C10.1276 12.7933 10.8892 12.0038 11.8297 12.0038Z" fill="#5B5B5B"/>
</svg>
