{
  "data": {
    "id": 641,
    "majors": "Kĩ thuật phầm mềm 4",
    "start_time": "07-2017",
    "end_time": "01-2020",
    "studying_area": "Đại học FPT",
    "description": "FPT dòng sông lời thề",
    "urlUpdate": "http://itnavi-pre-product.ap-southeast-1.elasticbeanstalk.com/portfolio/ajax/update-education/641",
    "urlDelete": "http://itnavi-pre-product.ap-southeast-1.elasticbeanstalk.com/portfolio/ajax/delete-components-depend/education/641"
  },
  "message": "successfully",
  "statusCode": 200
}