<svg width="14" height="14" viewBox="0 0 14 14" fill="none" xmlns="http://www.w3.org/2000/svg">
<path d="M12.1155 6.99113L10.4 8.31829C10.2303 8.44776 10.1039 8.624 10.028 8.81822C9.96663 8.97287 9.94135 9.13832 9.95219 9.30736L9.97025 9.63825L10.075 11.4617C10.1328 12.4256 9.05292 13.0371 8.24755 12.494L6.45262 11.2819C6.13481 11.0661 5.73031 11.0194 5.36916 11.1596L3.34671 11.9437C2.44021 12.2962 1.5265 11.4617 1.79375 10.5338L2.39688 8.45856C2.50161 8.0881 2.42216 7.69247 2.17657 7.39395L0.800582 5.72511C0.211903 5.00938 0.656121 3.94478 1.54817 3.82968C1.58789 3.82609 1.62762 3.82249 1.67096 3.81889L3.83788 3.75056C4.2207 3.73617 4.57824 3.53836 4.78409 3.21466L5.7267 1.75443L5.95784 1.39476C6.48151 0.578325 7.71665 0.718594 8.04891 1.62854L8.78567 3.66064C8.91568 4.02031 9.21905 4.29365 9.59104 4.39076L11.6893 4.93745C12.6319 5.18562 12.8811 6.39768 12.1155 6.99113Z" fill="#FFF06D"/>
<g opacity="0.6">
<path opacity="0.6" d="M12.1157 6.99119L10.4002 8.31835C10.2305 8.44783 10.1041 8.62406 10.0282 8.81828C9.96323 8.76433 9.89822 8.71038 9.83682 8.65643C9.7032 8.53774 9.56957 8.41186 9.51178 8.24641C9.44317 8.04141 9.51178 7.80763 9.64541 7.63858C9.78265 7.46954 9.97406 7.35445 10.1691 7.26453C10.4869 7.12067 10.8769 6.98759 10.9708 6.64951C11.0395 6.40134 10.9058 6.1316 10.7036 5.97334C10.5013 5.81509 10.2413 5.74316 9.98851 5.68921C9.63096 5.61008 9.26981 5.55613 8.90505 5.52736C8.65224 5.50578 8.39221 5.49499 8.15746 5.40148C7.64102 5.19287 7.36293 4.6246 7.25097 4.08151C7.1354 3.53842 7.13901 2.97015 6.95844 2.44504C6.91871 2.32635 6.86454 2.20407 6.77425 2.11775C6.68757 2.03503 6.56839 1.98467 6.45644 1.94511C6.21808 1.85879 5.9761 1.79765 5.73413 1.75809L5.96527 1.39842C6.48894 0.581988 7.72408 0.722256 8.05634 1.6322L8.79309 3.6643C8.92311 4.02397 9.22647 4.29731 9.59846 4.39442L11.6968 4.94111C12.6321 5.18568 12.8813 6.39775 12.1157 6.99119Z" fill="white"/>
</g>
<g opacity="0.2">
<path opacity="0.2" d="M10.075 11.4629C10.1328 12.4268 9.05292 13.0382 8.24755 12.4951L6.45262 11.283C6.1348 11.0672 5.73031 11.0205 5.36916 11.1608L3.34671 11.9448C2.44021 12.2973 1.5265 11.4629 1.79375 10.5349L2.39688 8.45968C2.50161 8.08923 2.42216 7.6936 2.17657 7.39508L0.800582 5.72624C0.211903 5.01051 0.656121 3.9459 1.54817 3.83081C1.55539 3.87397 1.56623 3.92073 1.58428 3.97108C1.68902 4.31995 1.92015 4.63646 2.18741 4.88103C2.70024 5.35219 3.35754 5.69387 3.72592 6.28372C4.24598 7.11814 4.04734 8.17915 3.96428 9.15383C3.94983 9.32647 3.94622 9.5171 4.05818 9.64657C4.16291 9.77246 4.3471 9.80483 4.50962 9.80123C5.05857 9.77605 5.56779 9.39481 6.11314 9.45595C6.86072 9.54227 8.21865 11.4197 8.87595 11.0385C9.39962 10.7364 8.83622 9.37683 9.96663 9.63578L10.075 11.4629Z" fill="#786234"/>
</g>
<path d="M8.90505 13.2387C8.56917 13.2387 8.23691 13.138 7.94438 12.9437L6.14945 11.7317C5.9761 11.6166 5.75941 11.5914 5.56439 11.6669L3.54554 12.451C2.9352 12.6884 2.25262 12.5625 1.76867 12.1201C1.28473 11.6777 1.09693 11.0159 1.27751 10.3865L1.88063 8.31127C1.93841 8.11345 1.89508 7.89766 1.76145 7.7394L0.38907 6.06697C-0.0262549 5.55984 -0.116543 4.87648 0.154321 4.27944C0.425186 3.6824 1.00303 3.30115 1.66033 3.27957L3.82724 3.21124C4.03671 3.20404 4.22451 3.09615 4.34008 2.92351L5.51021 1.1072C5.86414 0.55692 6.49255 0.261995 7.14262 0.333928C7.79631 0.405861 8.33804 0.833861 8.56195 1.44889L9.2987 3.48099C9.37093 3.6752 9.52984 3.82267 9.73209 3.87662L11.8304 4.4233C12.466 4.58875 12.9427 5.08868 13.0727 5.73248C13.2028 6.37268 12.9644 7.02008 12.4443 7.4229L10.7325 8.75006C10.57 8.87594 10.4761 9.07735 10.4905 9.28236L10.6169 11.4403C10.6566 12.0949 10.3244 12.6992 9.75375 13.0229C9.4865 13.1631 9.19397 13.2387 8.90505 13.2387ZM5.79552 10.5448C6.13501 10.5448 6.47088 10.6455 6.75619 10.8397L8.55112 12.0518C8.75336 12.1884 9.00256 12.1992 9.21564 12.0769C9.42872 11.9547 9.5479 11.7389 9.53345 11.4943L9.40705 9.33631C9.37454 8.77524 9.62013 8.23574 10.0643 7.89046L11.7762 6.5633C11.9712 6.41224 12.0579 6.18206 12.0073 5.94108C11.9568 5.70011 11.787 5.52028 11.5487 5.45913L9.45039 4.91245C8.90505 4.76858 8.46444 4.36935 8.27303 3.84065L7.53628 1.80855C7.45321 1.57836 7.25819 1.42371 7.01261 1.39853C6.76702 1.36976 6.54311 1.47766 6.40948 1.68267L5.23935 3.49897C4.93598 3.97013 4.41592 4.26505 3.85252 4.28304L1.68561 4.35137C1.44002 4.35856 1.23417 4.49883 1.12943 4.71823C1.02831 4.94122 1.06081 5.18579 1.21611 5.37641L2.58849 7.04885C2.94603 7.48404 3.06521 8.0631 2.90991 8.6026L2.30679 10.6779C2.23817 10.9116 2.30679 11.1526 2.48737 11.3181C2.66794 11.4835 2.91353 11.5303 3.14105 11.4403L5.15989 10.6563C5.37297 10.5807 5.58605 10.5448 5.79552 10.5448Z" fill="#786234"/>
</svg>
