<svg width="18" height="21" viewBox="0 0 18 21" fill="none" xmlns="http://www.w3.org/2000/svg">
<path d="M8.6276 10.1157C10.0173 10.1157 11.2207 9.61729 12.2039 8.63389C13.1872 7.65064 13.6856 6.44758 13.6856 5.0577C13.6856 3.66831 13.1872 2.46508 12.2038 1.48152C11.2204 0.498432 10.0172 0 8.6276 0C7.23773 0 6.03466 0.498432 5.05142 1.48168C4.06817 2.46492 3.56958 3.66815 3.56958 5.0577C3.56958 6.44758 4.06817 7.6508 5.05158 8.63405C6.03499 9.61713 7.23821 10.1157 8.6276 10.1157Z" fill="white"/>
<path d="M17.4778 16.1479C17.4495 15.7387 17.3921 15.2923 17.3077 14.821C17.2224 14.3461 17.1127 13.8972 16.9813 13.4868C16.8456 13.0627 16.661 12.6439 16.4329 12.2426C16.1961 11.826 15.9179 11.4633 15.6058 11.1648C15.2795 10.8526 14.8799 10.6015 14.4178 10.4184C13.9574 10.2362 13.4471 10.1439 12.9012 10.1439C12.6869 10.1439 12.4796 10.2319 12.0792 10.4926C11.8328 10.6533 11.5445 10.8391 11.2228 11.0447C10.9477 11.2199 10.5751 11.3842 10.1148 11.5328C9.66568 11.6782 9.2097 11.7519 8.75965 11.7519C8.30961 11.7519 7.85379 11.6782 7.40423 11.5328C6.94441 11.3843 6.57174 11.2201 6.29697 11.0448C5.9783 10.8412 5.68991 10.6553 5.43982 10.4924C5.03992 10.2317 4.83244 10.1438 4.61807 10.1438C4.07205 10.1438 3.56192 10.2362 3.10162 10.4185C2.63988 10.6013 2.24014 10.8524 1.91346 11.165C1.60152 11.4636 1.32322 11.8262 1.08675 12.2426C0.858758 12.6439 0.674189 13.0626 0.538326 13.487C0.407109 13.8973 0.297361 14.3461 0.212126 14.821C0.127692 15.2917 0.0703349 15.7382 0.0419766 16.1483C0.014099 16.5502 0 16.9672 0 17.3884C0 18.4846 0.34847 19.3721 1.03564 20.0265C1.71431 20.6724 2.61232 21 3.70436 21H13.8159C14.9079 21 15.8056 20.6725 16.4845 20.0265C17.1718 19.3725 17.5203 18.4849 17.5203 17.3883C17.5201 16.9651 17.5058 16.5478 17.4778 16.1479Z" fill="white"/>
</svg>
