{
  "data": {
    "jobs": [
      {
        "id": "3",
        "name": "ahurrerere",
        "slug": "https://itnavi.com.vn/job-detail/rd-engineer-on-machine-learning-artificial-intelligence-computer-vision-9674",
        "level": "Junior",
        "employment_type": "Product",
        "language": "English",
        "address": [
          {
            "province": "Tan Binh, Ho Chi Minh"
          }
        ],
        "description": "•\tResearch and develop machine learning (especially deep learning) techniques to solve computer vision problems (e.g., Person re-identification, Product recognition, Human behavior estimation, Object tracking, Face recognition, etc.).\n•\tUse machine learning and deep learning frameworks to build the core components of our image and video data analytics engine.\n•\tDevelop solutions for real-world, large-scale problems.",
        "requirement": "•\tGood knowledge of math.\n•\tKnowledge of machine learning, deep learning, computer vision.\n•\tCapability of conducting applied research in machine learning, deep learning and computer vision.\n•\tExperience in programming, proficiency in at least one of the programming languages Python, C++, Java.\n•\tExperience of using machine learning and deep learning frameworks TensorFlow, PyTorch, Keras.\n•\tAbility to work in a group and work independently.\n•\tAbility to use English (reading, writing, conversation).",
        "benefit": "•\tMonthly net income range for Junior R&amp;D Engineer: USD 800 - 1,400.\n•\tMonthly net income range for Senior R&amp;D Engineer: USD 1,700 - 2,200.\n•\t13th-month salary.\n•\tCompetitive salary and bonus, corresponding to capability and contribution.\n•\tProfessional laptop (e.g., Macbook Pro, Lenovo X1 Carbon, etc.) provided.\n•\tThe rights governed by Vietnam labor law.",
        "tech_stack": [
          "Python",
          "Machine Learning"
        ],
        "salary": "$800-1,400 Junior; $1,700-2,200 Senior",
        "published_at": "16 January 2020",
        "expired_at": "16 January 2021",
        "company": {
          "id": "1",
          "name": "AWL Vietnam",
          "headquarter": "Hoan Kiem, Ha Noi",
          "slug": "https://itnavi.com.vn/job-detail/rd-engineer-on-machine-learning-artificial-intelligence-computer-vision-9674",
          "file_image": "https://itnavi.s3.ap-southeast-1.amazonaws.com/company/awl-vietnam/logo/b52a72ceb8f2a60504cf9fbde3ff3d13.png",
          "img_pictures": [
            "https://itnavi.s3.ap-southeast-1.amazonaws.com/company/jv-it/picture/dd0c361b124681ebaa584538fe2566df.jpg",
            "https://itnavi.s3.ap-southeast-1.amazonaws.com/company/jv-it/picture/977a501342a4bfb577515bd19f1cc528.jpg",
            "https://itnavi.s3.ap-southeast-1.amazonaws.com/company/jv-it/picture/010d1fd395532164dd52413496ba0280.jpg",
            "https://itnavi.s3.ap-southeast-1.amazonaws.com/company/jv-it/picture/23d3f7376e6876863b3a930d9fb579d0.jpg",
            "https://itnavi.s3.ap-southeast-1.amazonaws.com/company/jv-it/picture/61a53b55d5af2eb63e92bd900144db72.jpg",
            "https://itnavi.s3.ap-southeast-1.amazonaws.com/company/jv-it/picture/0a7d43f9533a11be256e6ba94d16347c.jpg"
          ],
          "size": "1-50",
          "overview": "Được thành lập vào năm 2006 với 100% vốn Nhật Bản, JV-IT là công ty cung cấp giải pháp gia công phần mềm tiêu chuẩn quốc tế. JV-IT chuyên cung cấp các dịch vụ phát triển website, các sản phẩm công nghệ tin học, phát triển game… cho thị trường Nhật Bản. Sau hơn 11 năm hoạt động, trở thành một trong những thương hiệu hàng đầu của Việt Nam và vươn tầm quốc tế, chúng tôi ý thức được rằng phải chú trọng xây dựng bền vững dựa trên nền tảng con người. JV-IT là nơi khẳng định tài năng, ươm mầm sáng tạo, không có ý tưởng nào với chúng tôi là nhỏ bé, chúng tôi tôn vinh và tạo điều kiện để bạn biến nó thành hiện thực.",
          "why_you_love": " • 1 Mức lương cạnh tranh & hấp dẫn\n • 2 Lương tháng 13\n • 3 Gói BH sức khoẻ toàn diện PVI\n\nĐược thành lập vào năm 2006 với 100% vốn Nhật Bản, JV-IT là công ty cung cấp giải pháp gia công phần mềm tiêu chuẩn quốc tế. JV-IT chuyên cung cấp các dịch vụ phát triển website, các sản phẩm công nghệ tin học, phát triển game… cho thị trường Nhật Bản. Sau hơn 11 năm hoạt động, trở thành một trong những thương hiệu hàng đầu của Việt Nam và vươn tầm quốc tế, chúng tôi ý thức được rằng phải chú trọng xây dựng bền vững dựa trên nền tảng con người. JV-IT là nơi khẳng định tài năng, ươm mầm sáng tạo, không có ý tưởng nào với chúng tôi là nhỏ bé, chúng tôi tôn vinh và tạo điều kiện để bạn biến nó thành hiện thực."
        },
        "is_amazing": 0,
        "is_premium": 0,
        "service": {
          "hot_job": 1
        },
        "is_saved": 1,
        "views": 2455,
        "already_apply": 0
      },
      {
        "id": "6",
        "name": "TECHNICAL MANAGER ( TM ) – UP TO 45 MILLIONS",
        "slug": "https://itnavi.com.vn/job-detail/technical-manager-tm-up-to-45-millions-9687",
        "level": "Senior",
        "employment_type": "Outsourcing",
        "language": "Tiếng Anh",
        "address": [
          {
            "province": "Hà Nội"
          }
        ],
        "description": "Mô tả công việc\n- Chúng tôi đang tìm kiếm Technical Manager (TM) có năng lực phân tích cao, năng động để cùng đội nhóm đưa ra định hướng công nghệ tốt nhằm phát triển sản phẩm cho khách hàng.\n- Hiểu chiến lược và kết quả mong muốn của doanh nghiệp hoặc bộ phận.\n- Đánh giá giá trị của những việc cần làm, phát triển các ca sử dụng và ưu tiên các câu chuyện, sử thi, và mức độ ưu tiên để đảm bảo công việc tập trung vào những việc có giá trị tối đa phù hợp với chiến lược sản phẩm.\n- Làm việc với nhóm Dev để đưa ra các yêu cầu đã cam kết.\n- Triển khai thiết kế và xây dựng các module cho sản phẩm.\n- Tham gia xây dựng bộ khung cho sản phẩm.\n- Nắm rõ các giải pháp công nghệ và kiến trúc phù hợp, có định hướng.\n- Tư vấn ngược PO, BA về các yếu tố kỹ thuật để hoàn thiện sản phẩm.\n- Triển khai hệ thống CI / CD áp dụng cho sản phẩm.\n- Huấn luyện và tuyển chọn thành viên trong nhóm.\n- Thông tin thêm về Phòng IT của YODY: https://fb.watch/2iHolH9_AE\n- Website công ty: yody.vn",
        "requirement": "Yêu cầu\n- Nam: 25 tuổi trở lên\n- Hiểu phần mềm, phần cứng và tương tác, tích hợp và trải nghiệm người dùng.\n- Hiểu và sử dụng các hệ thống đám mây (AWS, Google Cloud)\n- Biết cách vẽ Biểu đồ UML (Biểu đồ trình tự, biểu đồ ca sử dụng ...)\n- Đã xây dựng hệ thống giao dịch lớn cho hàng triệu người dùng là một lợi thế.\n- Có kiến thức làm việc về các khái niệm và kỹ năng DevOps / SRE\n- Có kỹ năng giao tiếp tốt\n- Có kiến thức chuyên sâu về về JAVA hoặc .NET\n- Kinh nghiệm 3 năm ở vị trí tương đương, có kinh nghiệm trong lĩnh vực bán lẻ là một lợi thế.",
        "benefit": "Quyền lợi ứng viên\n- Thu nhập hàng năm lên đến 10 con số.\n- Lương cơ bản: 30 triệu - 45 triệu.\n- Thưởng doanh thu kinh doanh hàng tháng.\n- Chính sách ESOP với các thành viên gắn bó.\n- Làm việc trong công ty thời trang có tốc độ phát triển nhanh chóng Yody.vn với 100 cửa hàng, và 4600m2 cửa hàng lớn nhất Đông Nam Á.\n- Được đào tạo đặt ra cho mình sứ mệnh sống rõ ràng.\n- Được gia nhập công ty có nền văn hóa tốt nhất Việt Nam.\n- Hỗ trợ các khóa học nâng cao trình độ chuyên môn.\n- Các chế độ BHXH được thực hiện đầy đủ theo quy định.\n- Được nghỉ phép năm, lương thâm niên, thưởng cuối năm\n- Làm việc trong môi trường thoải mái, chuyên nghiệp và năng động\n- Được tham gia các lớp đào tạo, phát triển bản thân, ...\n- Được tổ chức sinh nhật hàng năm, đi du lịch 1-2 lần / năm.\n- Hỗ trợ ăn trưa miễn phí tại công ty.\n- Làm việc với đội ngũ lãnh đạo có tầm nhìn – truy cập để biết thêm chi tiết: https://bit.ly/3er6iVg",
        "tech_stack": [
          "Java",
          "English",
          "Manager"
        ],
        "salary": "",
        "salary_is_negotiate": 1,
        "published_at": "23 January 2020",
        "expired_at": "23 January 2021",
        "company": {
          "id": "1",
          "name": "Công ty cổ phần thời trang YODY",
          "headquarter": "Hải Dương",
          "slug": "https://itnavi.com.vn/job-detail/technical-manager-tm-up-to-45-millions-9687",
          "file_image": "https://itnavi.s3.ap-southeast-1.amazonaws.com/company/2500/file_image/360f0941b2c47422302e7222e9666d4e.png",
          "img_pictures": [
            "https://itnavi.s3.ap-southeast-1.amazonaws.com/company/2500/pictures/5eb787039a4fd6adbde7ff61fcd02785.jpg",
            "https://itnavi.s3.ap-southeast-1.amazonaws.com/company/2500/pictures/f33fdcb55205c98d94d790d66c7f6b2e.jpg",
            "https://itnavi.s3.ap-southeast-1.amazonaws.com/company/2500/pictures/26ed8c6dacbb82143a279fa82c3aa201.jpg",
            "https://itnavi.s3.ap-southeast-1.amazonaws.com/company/2500/pictures/16eee7360996c5df8750a1d1d3f7eedf.jpg",
            "https://itnavi.s3.ap-southeast-1.amazonaws.com/company/2500/pictures/9bb487554a103c673578ae1fd2c934b8.jpg",
            "https://itnavi.s3.ap-southeast-1.amazonaws.com/company/2500/pictures/0f915d200b259ebe0ebc7379ed45474f.jpg",
            "https://itnavi.s3.ap-southeast-1.amazonaws.com/company/2500/pictures/9818be486b148afc02f74ee2862f5f23.jpg",
            "https://itnavi.s3.ap-southeast-1.amazonaws.com/company/2500/pictures/49302f39f5fa7b76a2789f79ec3e3b9c.jpg"
          ],
          "size": "1-50",
          "overview": "YODY bắt đầu xuất hiện trên thị trường thời trang Việt từ năm 2014, trải qua chặng đường 5 năm, hiện tại đã có mặt trên 30 tỉnh thành trên toàn quốc, quy mô hơn 100 Showroom và đặc biệt showroom 4600m2 mua sắm lớn nhất Đông Nam Á tại Bắc Giang. Với định hướng phát triển công nghệ ứng dụng phát triển sản phẩm chuyên sâu gia tăng trải nghiệm khách hàng, chúng tôi đang tìm kiếm những nhân tài IT để cùng đưa giấc mơ mang thương hiệu Việt vươn tầm thế giới.",
          "why_you_love": ""
        },
        "is_amazing": 0,
        "is_premium": 0,
        "service": {
          "hot_job": 0
        },
        "is_saved": 1,
        "views": 2455,
        "already_apply": 1
      }
    ],
    "perPage": 25,
    "total": 1945
  },
  "message": "successfully",
  "statusCode": 200
}

