<svg width="16" height="15" viewBox="0 0 16 15" fill="none" xmlns="http://www.w3.org/2000/svg">
<path d="M15.2144 14.0247L10.7676 9.66729C11.611 8.64697 12.1187 7.34981 12.1187 5.93752C12.1187 2.66359 9.40045 0 6.05933 0C2.71822 0 0 2.66359 0 5.93752C0 9.21146 2.71825 11.875 6.05936 11.875C7.50063 11.875 8.8244 11.3775 9.86567 10.5511L14.3125 14.9085C14.4371 15.0305 14.6389 15.0305 14.7635 14.9085L15.2144 14.4666C15.3389 14.3446 15.3389 14.1467 15.2144 14.0247ZM6.05936 10.625C3.42148 10.625 1.27566 8.52236 1.27566 5.93752C1.27566 3.35268 3.42148 1.25001 6.05936 1.25001C8.69725 1.25001 10.8431 3.35268 10.8431 5.93752C10.8431 8.52236 8.69725 10.625 6.05936 10.625Z" fill="#6C6C6C"/>
</svg>
