<svg width="30" height="26" viewBox="0 0 30 26" fill="none" xmlns="http://www.w3.org/2000/svg">
<path d="M29.1266 3.46689C29.1248 3.46689 29.1229 3.46667 29.1211 3.46667H21.1523V2.6C21.1523 1.16639 19.9695 0 18.5156 0H11.4844C10.0305 0 8.84766 1.16639 8.84766 2.6V3.46667H0.878906C0.389557 3.46667 0 3.86208 0 4.33333V23.4C0 24.8336 1.18286 26 2.63672 26H27.3633C28.8171 26 30 24.8336 30 23.4V4.35161C30 4.35049 30 4.34936 30 4.34823C29.9664 3.77903 29.6114 3.47005 29.1266 3.46689ZM10.6055 2.6C10.6055 2.1222 10.9998 1.73333 11.4844 1.73333H18.5156C19.0002 1.73333 19.3945 2.1222 19.3945 2.6V3.46667H10.6055V2.6ZM27.9016 5.2L25.1722 13.274C25.0525 13.6286 24.7174 13.8667 24.3386 13.8667H19.3945V13C19.3945 12.5213 19.0011 12.1333 18.5156 12.1333H11.4844C10.9989 12.1333 10.6055 12.5213 10.6055 13V13.8667H5.66139C5.28259 13.8667 4.94751 13.6286 4.8278 13.274L2.09839 5.2H27.9016ZM17.6367 13.8667V15.6H12.3633V13.8667H17.6367ZM28.2422 23.4C28.2422 23.8778 27.8478 24.2667 27.3633 24.2667H2.63672C2.15218 24.2667 1.75781 23.8778 1.75781 23.4V9.67394L3.16017 13.8222C3.51952 14.8857 4.52477 15.6 5.66139 15.6H10.6055V16.4667C10.6055 16.9454 10.9989 17.3333 11.4844 17.3333H18.5156C19.0011 17.3333 19.3945 16.9454 19.3945 16.4667V15.6H24.3386C25.4752 15.6 26.4805 14.8857 26.8398 13.8222L28.2422 9.67394V23.4Z" fill="white"/>
</svg>
