{
  "data": {
    "id": 699,
    "title": "Ngoài đường anh là cá mập, ở nhà anh là cá con Nhà nào mà chả có mái",
    "image_url": "",
    "updateUrl": "http://127.0.0.1:8000/portfolio/ajax/update-service/708",
    "deleteUrl": "http://127.0.0.1:8000/portfolio/ajax/delete-components-depend/service/708"
  },
  "message": "successfully",
  "statusCode": 200
}