{
  "data": {
    "id": 794,
    "name": "ACSLS5556hgdhh66",
    "score": "99",
    "skillId": "19",
    "updateUrl": "http://itnavi-pre-product.ap-southeast-1.elasticbeanstalk.com/portfolio/ajax/update-skill/792",
    "deleteUrl": "http://itnavi-pre-product.ap-southeast-1.elasticbeanstalk.com/portfolio/ajax/delete-components-depend/skill/792"
  },
  "message": "successfully",
  "statusCode": 200
}