<svg width="18" height="22" viewBox="0 0 18 22" fill="none" xmlns="http://www.w3.org/2000/svg">
<path fill-rule="evenodd" clip-rule="evenodd" d="M1 0C0.447715 0 0 0.447715 0 1V6C0 6.31476 0.148194 6.61115 0.4 6.8L4 9.5V10.1011C2.76392 11.3626 2 13.0926 2 15C2 18.866 5.13402 22 9 22C12.866 22 16 18.866 16 15C16 13.0926 15.2361 11.3626 14 10.1011V9.50004L17.6001 6.8C17.8519 6.61115 18.0001 6.31476 18.0001 6V1C18.0001 0.447715 17.5523 0 17.0001 0H1ZM4 2V7L2 5.5V2H4ZM16.0001 5.5L14 7.00004V2H16.0001V5.5ZM9.52571 11.6494C9.82052 11.8316 9.99998 12.1534 9.99998 12.5V16.5C10.5523 16.5 11 16.9477 11 17.5C11 18.0523 10.5523 18.5 9.99998 18.5H7.99998C7.44769 18.5 6.99997 18.0523 6.99997 17.5C6.99997 16.9477 7.44769 16.5 7.99998 16.5V14.0002C7.63343 13.9999 7.28063 13.7974 7.10555 13.4472C6.85856 12.9532 7.05878 12.3526 7.55276 12.1056L8.55276 11.6056C8.86275 11.4506 9.23089 11.4671 9.52571 11.6494Z" fill="#393939"/>
</svg>
